<?xml version="1.0" encoding="UTF-8"?>
<svg version="1.0" viewBox="0 0 1280 1280" xmlns="http://www.w3.org/2000/svg">
<g transform="translate(0 1280) scale(.1 -.1)" fill="#ccc">
<path d="m6085 11558c-16-6-42-20-57-32-43-34-5357-5986-5375-6020-25-48-21-148 10-222 32-80 97-175 167-245 48-49 3248-2772 3356-2856 55-43 177-108 249-133s189-27 243-4c20 8 51 28 67 44 20 18 342 172 925 440 1376 634 2060 949 3105 1430 2067 952 2473 1139 2825 1300 402 184 425 199 455 290 26 78 22 214-9 322-31 105-17 75-476 1023-210 435-476 984-590 1220-114 237-352 728-528 1093-177 364-342 694-368 732-99 148-243 250-352 250-49 0-102-22-594-249l-540-250-992 843c-545 463-1020 864-1056 890-160 118-352 173-465 134z"/>
</g>
</svg>

